-target:library
-out:"Library/Bee/artifacts/500b0aE.dag/Zenject-IntegrationTests.dll"
-refout:"Library/Bee/artifacts/500b0aE.dag/Zenject-IntegrationTests.ref.dll"
-define:UNITY_2021_2_17
-define:UNITY_2021_2
-define:UNITY_2021
-define:UNITY_5_3_OR_NEWER
-define:UNITY_5_4_OR_NEWER
-define:UNITY_5_5_OR_NEWER
-define:UNITY_5_6_OR_NEWER
-define:UNITY_2017_1_OR_NEWER
-define:UNITY_2017_2_OR_NEWER
-define:UNITY_2017_3_OR_NEWER
-define:UNITY_2017_4_OR_NEWER
-define:UNITY_2018_1_OR_NEWER
-define:UNITY_2018_2_OR_NEWER
-define:UNITY_2018_3_OR_NEWER
-define:UNITY_2018_4_OR_NEWER
-define:UNITY_2019_1_OR_NEWER
-define:UNITY_2019_2_OR_NEWER
-define:UNITY_2019_3_OR_NEWER
-define:UNITY_2019_4_OR_NEWER
-define:UNITY_2020_1_OR_NEWER
-define:UNITY_2020_2_OR_NEWER
-define:UNITY_2020_3_OR_NEWER
-define:UNITY_2021_1_OR_NEWER
-define:UNITY_2021_2_OR_NEWER
-define:UNITY_INCLUDE_TESTS
-define:USE_SEARCH_ENGINE_API
-define:USE_SEARCH_TABLE
-define:USE_SEARCH_MODULE
-define:USE_PROPERTY_DATABASE
-define:USE_SEARCH_EXTENSION_API
-define:SCENE_TEMPLATE_MODULE
-define:ENABLE_AR
-define:ENABLE_AUDIO
-define:ENABLE_CACHING
-define:ENABLE_CLOTH
-define:ENABLE_EVENT_QUEUE
-define:ENABLE_MICROPHONE
-define:ENABLE_MULTIPLE_DISPLAYS
-define:ENABLE_PHYSICS
-define:ENABLE_TEXTURE_STREAMING
-define:ENABLE_VIRTUALTEXTURING
-define:ENABLE_UNET
-define:ENABLE_LZMA
-define:ENABLE_UNITYEVENTS
-define:ENABLE_VR
-define:ENABLE_WEBCAM
-define:ENABLE_UNITYWEBREQUEST
-define:ENABLE_WWW
-define:ENABLE_CLOUD_SERVICES
-define:ENABLE_CLOUD_SERVICES_COLLAB
-define:ENABLE_CLOUD_SERVICES_COLLAB_SOFTLOCKS
-define:ENABLE_CLOUD_SERVICES_ADS
-define:ENABLE_CLOUD_SERVICES_USE_WEBREQUEST
-define:ENABLE_CLOUD_SERVICES_CRASH_REPORTING
-define:ENABLE_CLOUD_SERVICES_PURCHASING
-define:ENABLE_CLOUD_SERVICES_ANALYTICS
-define:ENABLE_CLOUD_SERVICES_UNET
-define:ENABLE_CLOUD_SERVICES_BUILD
-define:ENABLE_CLOUD_LICENSE
-define:ENABLE_EDITOR_HUB_LICENSE
-define:ENABLE_WEBSOCKET_CLIENT
-define:ENABLE_DIRECTOR_AUDIO
-define:ENABLE_DIRECTOR_TEXTURE
-define:ENABLE_MANAGED_JOBS
-define:ENABLE_MANAGED_TRANSFORM_JOBS
-define:ENABLE_MANAGED_ANIMATION_JOBS
-define:ENABLE_MANAGED_AUDIO_JOBS
-define:ENABLE_MANAGED_UNITYTLS
-define:INCLUDE_DYNAMIC_GI
-define:ENABLE_SCRIPTING_GC_WBARRIERS
-define:PLATFORM_SUPPORTS_MONO
-define:RENDER_SOFTWARE_CURSOR
-define:ENABLE_VIDEO
-define:ENABLE_ACCELERATOR_CLIENT_DEBUGGING
-define:PLATFORM_STANDALONE
-define:TEXTCORE_1_0_OR_NEWER
-define:PLATFORM_STANDALONE_WIN
-define:UNITY_STANDALONE_WIN
-define:UNITY_STANDALONE
-define:ENABLE_RUNTIME_GI
-define:ENABLE_MOVIES
-define:ENABLE_NETWORK
-define:ENABLE_NVIDIA
-define:ENABLE_CRUNCH_TEXTURE_COMPRESSION
-define:ENABLE_OUT_OF_PROCESS_CRASH_HANDLER
-define:ENABLE_CLUSTER_SYNC
-define:ENABLE_CLUSTERINPUT
-define:PLATFORM_UPDATES_TIME_OUTSIDE_OF_PLAYER_LOOP
-define:GFXDEVICE_WAITFOREVENT_MESSAGEPUMP
-define:ENABLE_WEBSOCKET_HOST
-define:ENABLE_MONO
-define:NET_4_6
-define:NET_UNITY_4_8
-define:ENABLE_PROFILER
-define:DEBUG
-define:TRACE
-define:UNITY_ASSERTIONS
-define:UNITY_EDITOR
-define:UNITY_EDITOR_64
-define:UNITY_EDITOR_WIN
-define:ENABLE_UNITY_COLLECTIONS_CHECKS
-define:ENABLE_BURST_AOT
-define:UNITY_TEAM_LICENSE
-define:ENABLE_CUSTOM_RENDER_TEXTURE
-define:ENABLE_DIRECTOR
-define:ENABLE_LOCALIZATION
-define:ENABLE_SPRITES
-define:ENABLE_TERRAIN
-define:ENABLE_TILEMAP
-define:ENABLE_TIMELINE
-define:ENABLE_LEGACY_INPUT_MANAGER
-define:CSHARP_7_OR_LATER
-define:CSHARP_7_3_OR_NEWER
-r:"Assets/Plugins/Zenject/Source/Usage/Zenject-usage.dll"
-r:"C:/Program Files/Unity/Hub/Editor/2021.2.17f1/Editor/Data/Managed/UnityEngine/UnityEditor.CoreModule.dll"
-r:"C:/Program Files/Unity/Hub/Editor/2021.2.17f1/Editor/Data/Managed/UnityEngine/UnityEditor.DeviceSimulatorModule.dll"
-r:"C:/Program Files/Unity/Hub/Editor/2021.2.17f1/Editor/Data/Managed/UnityEngine/UnityEditor.DiagnosticsModule.dll"
-r:"C:/Program Files/Unity/Hub/Editor/2021.2.17f1/Editor/Data/Managed/UnityEngine/UnityEditor.dll"
-r:"C:/Program Files/Unity/Hub/Editor/2021.2.17f1/Editor/Data/Managed/UnityEngine/UnityEditor.GraphViewModule.dll"
-r:"C:/Program Files/Unity/Hub/Editor/2021.2.17f1/Editor/Data/Managed/UnityEngine/UnityEditor.PackageManagerUIModule.dll"
-r:"C:/Program Files/Unity/Hub/Editor/2021.2.17f1/Editor/Data/Managed/UnityEngine/UnityEditor.QuickSearchModule.dll"
-r:"C:/Program Files/Unity/Hub/Editor/2021.2.17f1/Editor/Data/Managed/UnityEngine/UnityEditor.SceneTemplateModule.dll"
-r:"C:/Program Files/Unity/Hub/Editor/2021.2.17f1/Editor/Data/Managed/UnityEngine/UnityEditor.TextCoreFontEngineModule.dll"
-r:"C:/Program Files/Unity/Hub/Editor/2021.2.17f1/Editor/Data/Managed/UnityEngine/UnityEditor.TextCoreTextEngineModule.dll"
-r:"C:/Program Files/Unity/Hub/Editor/2021.2.17f1/Editor/Data/Managed/UnityEngine/UnityEditor.UIBuilderModule.dll"
-r:"C:/Program Files/Unity/Hub/Editor/2021.2.17f1/Editor/Data/Managed/UnityEngine/UnityEditor.UIElementsModule.dll"
-r:"C:/Program Files/Unity/Hub/Editor/2021.2.17f1/Editor/Data/Managed/UnityEngine/UnityEditor.UIElementsSamplesModule.dll"
-r:"C:/Program Files/Unity/Hub/Editor/2021.2.17f1/Editor/Data/Managed/UnityEngine/UnityEditor.UIServiceModule.dll"
-r:"C:/Program Files/Unity/Hub/Editor/2021.2.17f1/Editor/Data/Managed/UnityEngine/UnityEditor.UnityConnectModule.dll"
-r:"C:/Program Files/Unity/Hub/Editor/2021.2.17f1/Editor/Data/Managed/UnityEngine/UnityEngine.AccessibilityModule.dll"
-r:"C:/Program Files/Unity/Hub/Editor/2021.2.17f1/Editor/Data/Managed/UnityEngine/UnityEngine.AIModule.dll"
-r:"C:/Program Files/Unity/Hub/Editor/2021.2.17f1/Editor/Data/Managed/UnityEngine/UnityEngine.AndroidJNIModule.dll"
-r:"C:/Program Files/Unity/Hub/Editor/2021.2.17f1/Editor/Data/Managed/UnityEngine/UnityEngine.AnimationModule.dll"
-r:"C:/Program Files/Unity/Hub/Editor/2021.2.17f1/Editor/Data/Managed/UnityEngine/UnityEngine.ARModule.dll"
-r:"C:/Program Files/Unity/Hub/Editor/2021.2.17f1/Editor/Data/Managed/UnityEngine/UnityEngine.AssetBundleModule.dll"
-r:"C:/Program Files/Unity/Hub/Editor/2021.2.17f1/Editor/Data/Managed/UnityEngine/UnityEngine.AudioModule.dll"
-r:"C:/Program Files/Unity/Hub/Editor/2021.2.17f1/Editor/Data/Managed/UnityEngine/UnityEngine.ClothModule.dll"
-r:"C:/Program Files/Unity/Hub/Editor/2021.2.17f1/Editor/Data/Managed/UnityEngine/UnityEngine.ClusterInputModule.dll"
-r:"C:/Program Files/Unity/Hub/Editor/2021.2.17f1/Editor/Data/Managed/UnityEngine/UnityEngine.ClusterRendererModule.dll"
-r:"C:/Program Files/Unity/Hub/Editor/2021.2.17f1/Editor/Data/Managed/UnityEngine/UnityEngine.CoreModule.dll"
-r:"C:/Program Files/Unity/Hub/Editor/2021.2.17f1/Editor/Data/Managed/UnityEngine/UnityEngine.CrashReportingModule.dll"
-r:"C:/Program Files/Unity/Hub/Editor/2021.2.17f1/Editor/Data/Managed/UnityEngine/UnityEngine.DirectorModule.dll"
-r:"C:/Program Files/Unity/Hub/Editor/2021.2.17f1/Editor/Data/Managed/UnityEngine/UnityEngine.dll"
-r:"C:/Program Files/Unity/Hub/Editor/2021.2.17f1/Editor/Data/Managed/UnityEngine/UnityEngine.DSPGraphModule.dll"
-r:"C:/Program Files/Unity/Hub/Editor/2021.2.17f1/Editor/Data/Managed/UnityEngine/UnityEngine.GameCenterModule.dll"
-r:"C:/Program Files/Unity/Hub/Editor/2021.2.17f1/Editor/Data/Managed/UnityEngine/UnityEngine.GIModule.dll"
-r:"C:/Program Files/Unity/Hub/Editor/2021.2.17f1/Editor/Data/Managed/UnityEngine/UnityEngine.GridModule.dll"
-r:"C:/Program Files/Unity/Hub/Editor/2021.2.17f1/Editor/Data/Managed/UnityEngine/UnityEngine.HotReloadModule.dll"
-r:"C:/Program Files/Unity/Hub/Editor/2021.2.17f1/Editor/Data/Managed/UnityEngine/UnityEngine.ImageConversionModule.dll"
-r:"C:/Program Files/Unity/Hub/Editor/2021.2.17f1/Editor/Data/Managed/UnityEngine/UnityEngine.IMGUIModule.dll"
-r:"C:/Program Files/Unity/Hub/Editor/2021.2.17f1/Editor/Data/Managed/UnityEngine/UnityEngine.InputLegacyModule.dll"
-r:"C:/Program Files/Unity/Hub/Editor/2021.2.17f1/Editor/Data/Managed/UnityEngine/UnityEngine.InputModule.dll"
-r:"C:/Program Files/Unity/Hub/Editor/2021.2.17f1/Editor/Data/Managed/UnityEngine/UnityEngine.JSONSerializeModule.dll"
-r:"C:/Program Files/Unity/Hub/Editor/2021.2.17f1/Editor/Data/Managed/UnityEngine/UnityEngine.LocalizationModule.dll"
-r:"C:/Program Files/Unity/Hub/Editor/2021.2.17f1/Editor/Data/Managed/UnityEngine/UnityEngine.ParticleSystemModule.dll"
-r:"C:/Program Files/Unity/Hub/Editor/2021.2.17f1/Editor/Data/Managed/UnityEngine/UnityEngine.PerformanceReportingModule.dll"
-r:"C:/Program Files/Unity/Hub/Editor/2021.2.17f1/Editor/Data/Managed/UnityEngine/UnityEngine.Physics2DModule.dll"
-r:"C:/Program Files/Unity/Hub/Editor/2021.2.17f1/Editor/Data/Managed/UnityEngine/UnityEngine.PhysicsModule.dll"
-r:"C:/Program Files/Unity/Hub/Editor/2021.2.17f1/Editor/Data/Managed/UnityEngine/UnityEngine.ProfilerModule.dll"
-r:"C:/Program Files/Unity/Hub/Editor/2021.2.17f1/Editor/Data/Managed/UnityEngine/UnityEngine.RuntimeInitializeOnLoadManagerInitializerModule.dll"
-r:"C:/Program Files/Unity/Hub/Editor/2021.2.17f1/Editor/Data/Managed/UnityEngine/UnityEngine.ScreenCaptureModule.dll"
-r:"C:/Program Files/Unity/Hub/Editor/2021.2.17f1/Editor/Data/Managed/UnityEngine/UnityEngine.SharedInternalsModule.dll"
-r:"C:/Program Files/Unity/Hub/Editor/2021.2.17f1/Editor/Data/Managed/UnityEngine/UnityEngine.SpriteMaskModule.dll"
-r:"C:/Program Files/Unity/Hub/Editor/2021.2.17f1/Editor/Data/Managed/UnityEngine/UnityEngine.SpriteShapeModule.dll"
-r:"C:/Program Files/Unity/Hub/Editor/2021.2.17f1/Editor/Data/Managed/UnityEngine/UnityEngine.StreamingModule.dll"
-r:"C:/Program Files/Unity/Hub/Editor/2021.2.17f1/Editor/Data/Managed/UnityEngine/UnityEngine.SubstanceModule.dll"
-r:"C:/Program Files/Unity/Hub/Editor/2021.2.17f1/Editor/Data/Managed/UnityEngine/UnityEngine.SubsystemsModule.dll"
-r:"C:/Program Files/Unity/Hub/Editor/2021.2.17f1/Editor/Data/Managed/UnityEngine/UnityEngine.TerrainModule.dll"
-r:"C:/Program Files/Unity/Hub/Editor/2021.2.17f1/Editor/Data/Managed/UnityEngine/UnityEngine.TerrainPhysicsModule.dll"
-r:"C:/Program Files/Unity/Hub/Editor/2021.2.17f1/Editor/Data/Managed/UnityEngine/UnityEngine.TextCoreFontEngineModule.dll"
-r:"C:/Program Files/Unity/Hub/Editor/2021.2.17f1/Editor/Data/Managed/UnityEngine/UnityEngine.TextCoreTextEngineModule.dll"
-r:"C:/Program Files/Unity/Hub/Editor/2021.2.17f1/Editor/Data/Managed/UnityEngine/UnityEngine.TextRenderingModule.dll"
-r:"C:/Program Files/Unity/Hub/Editor/2021.2.17f1/Editor/Data/Managed/UnityEngine/UnityEngine.TilemapModule.dll"
-r:"C:/Program Files/Unity/Hub/Editor/2021.2.17f1/Editor/Data/Managed/UnityEngine/UnityEngine.TLSModule.dll"
-r:"C:/Program Files/Unity/Hub/Editor/2021.2.17f1/Editor/Data/Managed/UnityEngine/UnityEngine.UIElementsModule.dll"
-r:"C:/Program Files/Unity/Hub/Editor/2021.2.17f1/Editor/Data/Managed/UnityEngine/UnityEngine.UIElementsNativeModule.dll"
-r:"C:/Program Files/Unity/Hub/Editor/2021.2.17f1/Editor/Data/Managed/UnityEngine/UnityEngine.UIModule.dll"
-r:"C:/Program Files/Unity/Hub/Editor/2021.2.17f1/Editor/Data/Managed/UnityEngine/UnityEngine.UmbraModule.dll"
-r:"C:/Program Files/Unity/Hub/Editor/2021.2.17f1/Editor/Data/Managed/UnityEngine/UnityEngine.UNETModule.dll"
-r:"C:/Program Files/Unity/Hub/Editor/2021.2.17f1/Editor/Data/Managed/UnityEngine/UnityEngine.UnityAnalyticsModule.dll"
-r:"C:/Program Files/Unity/Hub/Editor/2021.2.17f1/Editor/Data/Managed/UnityEngine/UnityEngine.UnityConnectModule.dll"
-r:"C:/Program Files/Unity/Hub/Editor/2021.2.17f1/Editor/Data/Managed/UnityEngine/UnityEngine.UnityCurlModule.dll"
-r:"C:/Program Files/Unity/Hub/Editor/2021.2.17f1/Editor/Data/Managed/UnityEngine/UnityEngine.UnityTestProtocolModule.dll"
-r:"C:/Program Files/Unity/Hub/Editor/2021.2.17f1/Editor/Data/Managed/UnityEngine/UnityEngine.UnityWebRequestAssetBundleModule.dll"
-r:"C:/Program Files/Unity/Hub/Editor/2021.2.17f1/Editor/Data/Managed/UnityEngine/UnityEngine.UnityWebRequestAudioModule.dll"
-r:"C:/Program Files/Unity/Hub/Editor/2021.2.17f1/Editor/Data/Managed/UnityEngine/UnityEngine.UnityWebRequestModule.dll"
-r:"C:/Program Files/Unity/Hub/Editor/2021.2.17f1/Editor/Data/Managed/UnityEngine/UnityEngine.UnityWebRequestTextureModule.dll"
-r:"C:/Program Files/Unity/Hub/Editor/2021.2.17f1/Editor/Data/Managed/UnityEngine/UnityEngine.UnityWebRequestWWWModule.dll"
-r:"C:/Program Files/Unity/Hub/Editor/2021.2.17f1/Editor/Data/Managed/UnityEngine/UnityEngine.VehiclesModule.dll"
-r:"C:/Program Files/Unity/Hub/Editor/2021.2.17f1/Editor/Data/Managed/UnityEngine/UnityEngine.VFXModule.dll"
-r:"C:/Program Files/Unity/Hub/Editor/2021.2.17f1/Editor/Data/Managed/UnityEngine/UnityEngine.VideoModule.dll"
-r:"C:/Program Files/Unity/Hub/Editor/2021.2.17f1/Editor/Data/Managed/UnityEngine/UnityEngine.VirtualTexturingModule.dll"
-r:"C:/Program Files/Unity/Hub/Editor/2021.2.17f1/Editor/Data/Managed/UnityEngine/UnityEngine.VRModule.dll"
-r:"C:/Program Files/Unity/Hub/Editor/2021.2.17f1/Editor/Data/Managed/UnityEngine/UnityEngine.WindModule.dll"
-r:"C:/Program Files/Unity/Hub/Editor/2021.2.17f1/Editor/Data/Managed/UnityEngine/UnityEngine.XRModule.dll"
-r:"C:/Program Files/Unity/Hub/Editor/2021.2.17f1/Editor/Data/UnityReferenceAssemblies/unity-4.8-api/Facades/Microsoft.Win32.Primitives.dll"
-r:"C:/Program Files/Unity/Hub/Editor/2021.2.17f1/Editor/Data/UnityReferenceAssemblies/unity-4.8-api/Facades/netstandard.dll"
-r:"C:/Program Files/Unity/Hub/Editor/2021.2.17f1/Editor/Data/UnityReferenceAssemblies/unity-4.8-api/Facades/System.AppContext.dll"
-r:"C:/Program Files/Unity/Hub/Editor/2021.2.17f1/Editor/Data/UnityReferenceAssemblies/unity-4.8-api/Facades/System.Buffers.dll"
-r:"C:/Program Files/Unity/Hub/Editor/2021.2.17f1/Editor/Data/UnityReferenceAssemblies/unity-4.8-api/Facades/System.Collections.Concurrent.dll"
-r:"C:/Program Files/Unity/Hub/Editor/2021.2.17f1/Editor/Data/UnityReferenceAssemblies/unity-4.8-api/Facades/System.Collections.dll"
-r:"C:/Program Files/Unity/Hub/Editor/2021.2.17f1/Editor/Data/UnityReferenceAssemblies/unity-4.8-api/Facades/System.Collections.NonGeneric.dll"
-r:"C:/Program Files/Unity/Hub/Editor/2021.2.17f1/Editor/Data/UnityReferenceAssemblies/unity-4.8-api/Facades/System.Collections.Specialized.dll"
-r:"C:/Program Files/Unity/Hub/Editor/2021.2.17f1/Editor/Data/UnityReferenceAssemblies/unity-4.8-api/Facades/System.ComponentModel.Annotations.dll"
-r:"C:/Program Files/Unity/Hub/Editor/2021.2.17f1/Editor/Data/UnityReferenceAssemblies/unity-4.8-api/Facades/System.ComponentModel.dll"
-r:"C:/Program Files/Unity/Hub/Editor/2021.2.17f1/Editor/Data/UnityReferenceAssemblies/unity-4.8-api/Facades/System.ComponentModel.EventBasedAsync.dll"
-r:"C:/Program Files/Unity/Hub/Editor/2021.2.17f1/Editor/Data/UnityReferenceAssemblies/unity-4.8-api/Facades/System.ComponentModel.Primitives.dll"
-r:"C:/Program Files/Unity/Hub/Editor/2021.2.17f1/Editor/Data/UnityReferenceAssemblies/unity-4.8-api/Facades/System.ComponentModel.TypeConverter.dll"
-r:"C:/Program Files/Unity/Hub/Editor/2021.2.17f1/Editor/Data/UnityReferenceAssemblies/unity-4.8-api/Facades/System.Console.dll"
-r:"C:/Program Files/Unity/Hub/Editor/2021.2.17f1/Editor/Data/UnityReferenceAssemblies/unity-4.8-api/Facades/System.Data.Common.dll"
-r:"C:/Program Files/Unity/Hub/Editor/2021.2.17f1/Editor/Data/UnityReferenceAssemblies/unity-4.8-api/Facades/System.Diagnostics.Contracts.dll"
-r:"C:/Program Files/Unity/Hub/Editor/2021.2.17f1/Editor/Data/UnityReferenceAssemblies/unity-4.8-api/Facades/System.Diagnostics.Debug.dll"
-r:"C:/Program Files/Unity/Hub/Editor/2021.2.17f1/Editor/Data/UnityReferenceAssemblies/unity-4.8-api/Facades/System.Diagnostics.FileVersionInfo.dll"
-r:"C:/Program Files/Unity/Hub/Editor/2021.2.17f1/Editor/Data/UnityReferenceAssemblies/unity-4.8-api/Facades/System.Diagnostics.Process.dll"
-r:"C:/Program Files/Unity/Hub/Editor/2021.2.17f1/Editor/Data/UnityReferenceAssemblies/unity-4.8-api/Facades/System.Diagnostics.StackTrace.dll"
-r:"C:/Program Files/Unity/Hub/Editor/2021.2.17f1/Editor/Data/UnityReferenceAssemblies/unity-4.8-api/Facades/System.Diagnostics.TextWriterTraceListener.dll"
-r:"C:/Program Files/Unity/Hub/Editor/2021.2.17f1/Editor/Data/UnityReferenceAssemblies/unity-4.8-api/Facades/System.Diagnostics.Tools.dll"
-r:"C:/Program Files/Unity/Hub/Editor/2021.2.17f1/Editor/Data/UnityReferenceAssemblies/unity-4.8-api/Facades/System.Diagnostics.TraceSource.dll"
-r:"C:/Program Files/Unity/Hub/Editor/2021.2.17f1/Editor/Data/UnityReferenceAssemblies/unity-4.8-api/Facades/System.Drawing.Primitives.dll"
-r:"C:/Program Files/Unity/Hub/Editor/2021.2.17f1/Editor/Data/UnityReferenceAssemblies/unity-4.8-api/Facades/System.Dynamic.Runtime.dll"
-r:"C:/Program Files/Unity/Hub/Editor/2021.2.17f1/Editor/Data/UnityReferenceAssemblies/unity-4.8-api/Facades/System.Globalization.Calendars.dll"
-r:"C:/Program Files/Unity/Hub/Editor/2021.2.17f1/Editor/Data/UnityReferenceAssemblies/unity-4.8-api/Facades/System.Globalization.dll"
-r:"C:/Program Files/Unity/Hub/Editor/2021.2.17f1/Editor/Data/UnityReferenceAssemblies/unity-4.8-api/Facades/System.Globalization.Extensions.dll"
-r:"C:/Program Files/Unity/Hub/Editor/2021.2.17f1/Editor/Data/UnityReferenceAssemblies/unity-4.8-api/Facades/System.IO.Compression.ZipFile.dll"
-r:"C:/Program Files/Unity/Hub/Editor/2021.2.17f1/Editor/Data/UnityReferenceAssemblies/unity-4.8-api/Facades/System.IO.dll"
-r:"C:/Program Files/Unity/Hub/Editor/2021.2.17f1/Editor/Data/UnityReferenceAssemblies/unity-4.8-api/Facades/System.IO.FileSystem.dll"
-r:"C:/Program Files/Unity/Hub/Editor/2021.2.17f1/Editor/Data/UnityReferenceAssemblies/unity-4.8-api/Facades/System.IO.FileSystem.DriveInfo.dll"
-r:"C:/Program Files/Unity/Hub/Editor/2021.2.17f1/Editor/Data/UnityReferenceAssemblies/unity-4.8-api/Facades/System.IO.FileSystem.Primitives.dll"
-r:"C:/Program Files/Unity/Hub/Editor/2021.2.17f1/Editor/Data/UnityReferenceAssemblies/unity-4.8-api/Facades/System.IO.FileSystem.Watcher.dll"
-r:"C:/Program Files/Unity/Hub/Editor/2021.2.17f1/Editor/Data/UnityReferenceAssemblies/unity-4.8-api/Facades/System.IO.IsolatedStorage.dll"
-r:"C:/Program Files/Unity/Hub/Editor/2021.2.17f1/Editor/Data/UnityReferenceAssemblies/unity-4.8-api/Facades/System.IO.MemoryMappedFiles.dll"
-r:"C:/Program Files/Unity/Hub/Editor/2021.2.17f1/Editor/Data/UnityReferenceAssemblies/unity-4.8-api/Facades/System.IO.Pipes.dll"
-r:"C:/Program Files/Unity/Hub/Editor/2021.2.17f1/Editor/Data/UnityReferenceAssemblies/unity-4.8-api/Facades/System.IO.UnmanagedMemoryStream.dll"
-r:"C:/Program Files/Unity/Hub/Editor/2021.2.17f1/Editor/Data/UnityReferenceAssemblies/unity-4.8-api/Facades/System.Linq.dll"
-r:"C:/Program Files/Unity/Hub/Editor/2021.2.17f1/Editor/Data/UnityReferenceAssemblies/unity-4.8-api/Facades/System.Linq.Expressions.dll"
-r:"C:/Program Files/Unity/Hub/Editor/2021.2.17f1/Editor/Data/UnityReferenceAssemblies/unity-4.8-api/Facades/System.Linq.Parallel.dll"
-r:"C:/Program Files/Unity/Hub/Editor/2021.2.17f1/Editor/Data/UnityReferenceAssemblies/unity-4.8-api/Facades/System.Linq.Queryable.dll"
-r:"C:/Program Files/Unity/Hub/Editor/2021.2.17f1/Editor/Data/UnityReferenceAssemblies/unity-4.8-api/Facades/System.Memory.dll"
-r:"C:/Program Files/Unity/Hub/Editor/2021.2.17f1/Editor/Data/UnityReferenceAssemblies/unity-4.8-api/Facades/System.Net.Http.Rtc.dll"
-r:"C:/Program Files/Unity/Hub/Editor/2021.2.17f1/Editor/Data/UnityReferenceAssemblies/unity-4.8-api/Facades/System.Net.NameResolution.dll"
-r:"C:/Program Files/Unity/Hub/Editor/2021.2.17f1/Editor/Data/UnityReferenceAssemblies/unity-4.8-api/Facades/System.Net.NetworkInformation.dll"
-r:"C:/Program Files/Unity/Hub/Editor/2021.2.17f1/Editor/Data/UnityReferenceAssemblies/unity-4.8-api/Facades/System.Net.Ping.dll"
-r:"C:/Program Files/Unity/Hub/Editor/2021.2.17f1/Editor/Data/UnityReferenceAssemblies/unity-4.8-api/Facades/System.Net.Primitives.dll"
-r:"C:/Program Files/Unity/Hub/Editor/2021.2.17f1/Editor/Data/UnityReferenceAssemblies/unity-4.8-api/Facades/System.Net.Requests.dll"
-r:"C:/Program Files/Unity/Hub/Editor/2021.2.17f1/Editor/Data/UnityReferenceAssemblies/unity-4.8-api/Facades/System.Net.Security.dll"
-r:"C:/Program Files/Unity/Hub/Editor/2021.2.17f1/Editor/Data/UnityReferenceAssemblies/unity-4.8-api/Facades/System.Net.Sockets.dll"
-r:"C:/Program Files/Unity/Hub/Editor/2021.2.17f1/Editor/Data/UnityReferenceAssemblies/unity-4.8-api/Facades/System.Net.WebHeaderCollection.dll"
-r:"C:/Program Files/Unity/Hub/Editor/2021.2.17f1/Editor/Data/UnityReferenceAssemblies/unity-4.8-api/Facades/System.Net.WebSockets.Client.dll"
-r:"C:/Program Files/Unity/Hub/Editor/2021.2.17f1/Editor/Data/UnityReferenceAssemblies/unity-4.8-api/Facades/System.Net.WebSockets.dll"
-r:"C:/Program Files/Unity/Hub/Editor/2021.2.17f1/Editor/Data/UnityReferenceAssemblies/unity-4.8-api/Facades/System.ObjectModel.dll"
-r:"C:/Program Files/Unity/Hub/Editor/2021.2.17f1/Editor/Data/UnityReferenceAssemblies/unity-4.8-api/Facades/System.Reflection.DispatchProxy.dll"
-r:"C:/Program Files/Unity/Hub/Editor/2021.2.17f1/Editor/Data/UnityReferenceAssemblies/unity-4.8-api/Facades/System.Reflection.dll"
-r:"C:/Program Files/Unity/Hub/Editor/2021.2.17f1/Editor/Data/UnityReferenceAssemblies/unity-4.8-api/Facades/System.Reflection.Emit.dll"
-r:"C:/Program Files/Unity/Hub/Editor/2021.2.17f1/Editor/Data/UnityReferenceAssemblies/unity-4.8-api/Facades/System.Reflection.Emit.ILGeneration.dll"
-r:"C:/Program Files/Unity/Hub/Editor/2021.2.17f1/Editor/Data/UnityReferenceAssemblies/unity-4.8-api/Facades/System.Reflection.Emit.Lightweight.dll"
-r:"C:/Program Files/Unity/Hub/Editor/2021.2.17f1/Editor/Data/UnityReferenceAssemblies/unity-4.8-api/Facades/System.Reflection.Extensions.dll"
-r:"C:/Program Files/Unity/Hub/Editor/2021.2.17f1/Editor/Data/UnityReferenceAssemblies/unity-4.8-api/Facades/System.Reflection.Primitives.dll"
-r:"C:/Program Files/Unity/Hub/Editor/2021.2.17f1/Editor/Data/UnityReferenceAssemblies/unity-4.8-api/Facades/System.Resources.Reader.dll"
-r:"C:/Program Files/Unity/Hub/Editor/2021.2.17f1/Editor/Data/UnityReferenceAssemblies/unity-4.8-api/Facades/System.Resources.ResourceManager.dll"
-r:"C:/Program Files/Unity/Hub/Editor/2021.2.17f1/Editor/Data/UnityReferenceAssemblies/unity-4.8-api/Facades/System.Resources.Writer.dll"
-r:"C:/Program Files/Unity/Hub/Editor/2021.2.17f1/Editor/Data/UnityReferenceAssemblies/unity-4.8-api/Facades/System.Runtime.CompilerServices.VisualC.dll"
-r:"C:/Program Files/Unity/Hub/Editor/2021.2.17f1/Editor/Data/UnityReferenceAssemblies/unity-4.8-api/Facades/System.Runtime.dll"
-r:"C:/Program Files/Unity/Hub/Editor/2021.2.17f1/Editor/Data/UnityReferenceAssemblies/unity-4.8-api/Facades/System.Runtime.Extensions.dll"
-r:"C:/Program Files/Unity/Hub/Editor/2021.2.17f1/Editor/Data/UnityReferenceAssemblies/unity-4.8-api/Facades/System.Runtime.Handles.dll"
-r:"C:/Program Files/Unity/Hub/Editor/2021.2.17f1/Editor/Data/UnityReferenceAssemblies/unity-4.8-api/Facades/System.Runtime.InteropServices.dll"
-r:"C:/Program Files/Unity/Hub/Editor/2021.2.17f1/Editor/Data/UnityReferenceAssemblies/unity-4.8-api/Facades/System.Runtime.InteropServices.RuntimeInformation.dll"
-r:"C:/Program Files/Unity/Hub/Editor/2021.2.17f1/Editor/Data/UnityReferenceAssemblies/unity-4.8-api/Facades/System.Runtime.InteropServices.WindowsRuntime.dll"
-r:"C:/Program Files/Unity/Hub/Editor/2021.2.17f1/Editor/Data/UnityReferenceAssemblies/unity-4.8-api/Facades/System.Runtime.Numerics.dll"
-r:"C:/Program Files/Unity/Hub/Editor/2021.2.17f1/Editor/Data/UnityReferenceAssemblies/unity-4.8-api/Facades/System.Runtime.Serialization.Formatters.dll"
-r:"C:/Program Files/Unity/Hub/Editor/2021.2.17f1/Editor/Data/UnityReferenceAssemblies/unity-4.8-api/Facades/System.Runtime.Serialization.Json.dll"
-r:"C:/Program Files/Unity/Hub/Editor/2021.2.17f1/Editor/Data/UnityReferenceAssemblies/unity-4.8-api/Facades/System.Runtime.Serialization.Primitives.dll"
-r:"C:/Program Files/Unity/Hub/Editor/2021.2.17f1/Editor/Data/UnityReferenceAssemblies/unity-4.8-api/Facades/System.Runtime.Serialization.Xml.dll"
-r:"C:/Program Files/Unity/Hub/Editor/2021.2.17f1/Editor/Data/UnityReferenceAssemblies/unity-4.8-api/Facades/System.Security.Claims.dll"
-r:"C:/Program Files/Unity/Hub/Editor/2021.2.17f1/Editor/Data/UnityReferenceAssemblies/unity-4.8-api/Facades/System.Security.Cryptography.Algorithms.dll"
-r:"C:/Program Files/Unity/Hub/Editor/2021.2.17f1/Editor/Data/UnityReferenceAssemblies/unity-4.8-api/Facades/System.Security.Cryptography.Csp.dll"
-r:"C:/Program Files/Unity/Hub/Editor/2021.2.17f1/Editor/Data/UnityReferenceAssemblies/unity-4.8-api/Facades/System.Security.Cryptography.Encoding.dll"
-r:"C:/Program Files/Unity/Hub/Editor/2021.2.17f1/Editor/Data/UnityReferenceAssemblies/unity-4.8-api/Facades/System.Security.Cryptography.Primitives.dll"
-r:"C:/Program Files/Unity/Hub/Editor/2021.2.17f1/Editor/Data/UnityReferenceAssemblies/unity-4.8-api/Facades/System.Security.Cryptography.X509Certificates.dll"
-r:"C:/Program Files/Unity/Hub/Editor/2021.2.17f1/Editor/Data/UnityReferenceAssemblies/unity-4.8-api/Facades/System.Security.Principal.dll"
-r:"C:/Program Files/Unity/Hub/Editor/2021.2.17f1/Editor/Data/UnityReferenceAssemblies/unity-4.8-api/Facades/System.Security.SecureString.dll"
-r:"C:/Program Files/Unity/Hub/Editor/2021.2.17f1/Editor/Data/UnityReferenceAssemblies/unity-4.8-api/Facades/System.ServiceModel.Duplex.dll"
-r:"C:/Program Files/Unity/Hub/Editor/2021.2.17f1/Editor/Data/UnityReferenceAssemblies/unity-4.8-api/Facades/System.ServiceModel.Http.dll"
-r:"C:/Program Files/Unity/Hub/Editor/2021.2.17f1/Editor/Data/UnityReferenceAssemblies/unity-4.8-api/Facades/System.ServiceModel.NetTcp.dll"
-r:"C:/Program Files/Unity/Hub/Editor/2021.2.17f1/Editor/Data/UnityReferenceAssemblies/unity-4.8-api/Facades/System.ServiceModel.Primitives.dll"
-r:"C:/Program Files/Unity/Hub/Editor/2021.2.17f1/Editor/Data/UnityReferenceAssemblies/unity-4.8-api/Facades/System.ServiceModel.Security.dll"
-r:"C:/Program Files/Unity/Hub/Editor/2021.2.17f1/Editor/Data/UnityReferenceAssemblies/unity-4.8-api/Facades/System.Text.Encoding.dll"
-r:"C:/Program Files/Unity/Hub/Editor/2021.2.17f1/Editor/Data/UnityReferenceAssemblies/unity-4.8-api/Facades/System.Text.Encoding.Extensions.dll"
-r:"C:/Program Files/Unity/Hub/Editor/2021.2.17f1/Editor/Data/UnityReferenceAssemblies/unity-4.8-api/Facades/System.Text.RegularExpressions.dll"
-r:"C:/Program Files/Unity/Hub/Editor/2021.2.17f1/Editor/Data/UnityReferenceAssemblies/unity-4.8-api/Facades/System.Threading.dll"
-r:"C:/Program Files/Unity/Hub/Editor/2021.2.17f1/Editor/Data/UnityReferenceAssemblies/unity-4.8-api/Facades/System.Threading.Overlapped.dll"
-r:"C:/Program Files/Unity/Hub/Editor/2021.2.17f1/Editor/Data/UnityReferenceAssemblies/unity-4.8-api/Facades/System.Threading.Tasks.dll"
-r:"C:/Program Files/Unity/Hub/Editor/2021.2.17f1/Editor/Data/UnityReferenceAssemblies/unity-4.8-api/Facades/System.Threading.Tasks.Extensions.dll"
-r:"C:/Program Files/Unity/Hub/Editor/2021.2.17f1/Editor/Data/UnityReferenceAssemblies/unity-4.8-api/Facades/System.Threading.Tasks.Parallel.dll"
-r:"C:/Program Files/Unity/Hub/Editor/2021.2.17f1/Editor/Data/UnityReferenceAssemblies/unity-4.8-api/Facades/System.Threading.Thread.dll"
-r:"C:/Program Files/Unity/Hub/Editor/2021.2.17f1/Editor/Data/UnityReferenceAssemblies/unity-4.8-api/Facades/System.Threading.ThreadPool.dll"
-r:"C:/Program Files/Unity/Hub/Editor/2021.2.17f1/Editor/Data/UnityReferenceAssemblies/unity-4.8-api/Facades/System.Threading.Timer.dll"
-r:"C:/Program Files/Unity/Hub/Editor/2021.2.17f1/Editor/Data/UnityReferenceAssemblies/unity-4.8-api/Facades/System.ValueTuple.dll"
-r:"C:/Program Files/Unity/Hub/Editor/2021.2.17f1/Editor/Data/UnityReferenceAssemblies/unity-4.8-api/Facades/System.Xml.ReaderWriter.dll"
-r:"C:/Program Files/Unity/Hub/Editor/2021.2.17f1/Editor/Data/UnityReferenceAssemblies/unity-4.8-api/Facades/System.Xml.XDocument.dll"
-r:"C:/Program Files/Unity/Hub/Editor/2021.2.17f1/Editor/Data/UnityReferenceAssemblies/unity-4.8-api/Facades/System.Xml.XmlDocument.dll"
-r:"C:/Program Files/Unity/Hub/Editor/2021.2.17f1/Editor/Data/UnityReferenceAssemblies/unity-4.8-api/Facades/System.Xml.XmlSerializer.dll"
-r:"C:/Program Files/Unity/Hub/Editor/2021.2.17f1/Editor/Data/UnityReferenceAssemblies/unity-4.8-api/Facades/System.Xml.XPath.dll"
-r:"C:/Program Files/Unity/Hub/Editor/2021.2.17f1/Editor/Data/UnityReferenceAssemblies/unity-4.8-api/Facades/System.Xml.XPath.XDocument.dll"
-r:"C:/Program Files/Unity/Hub/Editor/2021.2.17f1/Editor/Data/UnityReferenceAssemblies/unity-4.8-api/Microsoft.CSharp.dll"
-r:"C:/Program Files/Unity/Hub/Editor/2021.2.17f1/Editor/Data/UnityReferenceAssemblies/unity-4.8-api/mscorlib.dll"
-r:"C:/Program Files/Unity/Hub/Editor/2021.2.17f1/Editor/Data/UnityReferenceAssemblies/unity-4.8-api/System.ComponentModel.Composition.dll"
-r:"C:/Program Files/Unity/Hub/Editor/2021.2.17f1/Editor/Data/UnityReferenceAssemblies/unity-4.8-api/System.ComponentModel.DataAnnotations.dll"
-r:"C:/Program Files/Unity/Hub/Editor/2021.2.17f1/Editor/Data/UnityReferenceAssemblies/unity-4.8-api/System.Configuration.dll"
-r:"C:/Program Files/Unity/Hub/Editor/2021.2.17f1/Editor/Data/UnityReferenceAssemblies/unity-4.8-api/System.Configuration.Install.dll"
-r:"C:/Program Files/Unity/Hub/Editor/2021.2.17f1/Editor/Data/UnityReferenceAssemblies/unity-4.8-api/System.Core.dll"
-r:"C:/Program Files/Unity/Hub/Editor/2021.2.17f1/Editor/Data/UnityReferenceAssemblies/unity-4.8-api/System.Data.DataSetExtensions.dll"
-r:"C:/Program Files/Unity/Hub/Editor/2021.2.17f1/Editor/Data/UnityReferenceAssemblies/unity-4.8-api/System.Data.dll"
-r:"C:/Program Files/Unity/Hub/Editor/2021.2.17f1/Editor/Data/UnityReferenceAssemblies/unity-4.8-api/System.Data.Entity.dll"
-r:"C:/Program Files/Unity/Hub/Editor/2021.2.17f1/Editor/Data/UnityReferenceAssemblies/unity-4.8-api/System.Data.Linq.dll"
-r:"C:/Program Files/Unity/Hub/Editor/2021.2.17f1/Editor/Data/UnityReferenceAssemblies/unity-4.8-api/System.Data.OracleClient.dll"
-r:"C:/Program Files/Unity/Hub/Editor/2021.2.17f1/Editor/Data/UnityReferenceAssemblies/unity-4.8-api/System.Data.Services.Client.dll"
-r:"C:/Program Files/Unity/Hub/Editor/2021.2.17f1/Editor/Data/UnityReferenceAssemblies/unity-4.8-api/System.Data.Services.dll"
-r:"C:/Program Files/Unity/Hub/Editor/2021.2.17f1/Editor/Data/UnityReferenceAssemblies/unity-4.8-api/System.Deployment.dll"
-r:"C:/Program Files/Unity/Hub/Editor/2021.2.17f1/Editor/Data/UnityReferenceAssemblies/unity-4.8-api/System.Design.dll"
-r:"C:/Program Files/Unity/Hub/Editor/2021.2.17f1/Editor/Data/UnityReferenceAssemblies/unity-4.8-api/System.Diagnostics.Tracing.dll"
-r:"C:/Program Files/Unity/Hub/Editor/2021.2.17f1/Editor/Data/UnityReferenceAssemblies/unity-4.8-api/System.DirectoryServices.dll"
-r:"C:/Program Files/Unity/Hub/Editor/2021.2.17f1/Editor/Data/UnityReferenceAssemblies/unity-4.8-api/System.DirectoryServices.Protocols.dll"
-r:"C:/Program Files/Unity/Hub/Editor/2021.2.17f1/Editor/Data/UnityReferenceAssemblies/unity-4.8-api/System.dll"
-r:"C:/Program Files/Unity/Hub/Editor/2021.2.17f1/Editor/Data/UnityReferenceAssemblies/unity-4.8-api/System.Drawing.Design.dll"
-r:"C:/Program Files/Unity/Hub/Editor/2021.2.17f1/Editor/Data/UnityReferenceAssemblies/unity-4.8-api/System.Drawing.dll"
-r:"C:/Program Files/Unity/Hub/Editor/2021.2.17f1/Editor/Data/UnityReferenceAssemblies/unity-4.8-api/System.Dynamic.dll"
-r:"C:/Program Files/Unity/Hub/Editor/2021.2.17f1/Editor/Data/UnityReferenceAssemblies/unity-4.8-api/System.EnterpriseServices.dll"
-r:"C:/Program Files/Unity/Hub/Editor/2021.2.17f1/Editor/Data/UnityReferenceAssemblies/unity-4.8-api/System.IdentityModel.dll"
-r:"C:/Program Files/Unity/Hub/Editor/2021.2.17f1/Editor/Data/UnityReferenceAssemblies/unity-4.8-api/System.IdentityModel.Selectors.dll"
-r:"C:/Program Files/Unity/Hub/Editor/2021.2.17f1/Editor/Data/UnityReferenceAssemblies/unity-4.8-api/System.IO.Compression.dll"
-r:"C:/Program Files/Unity/Hub/Editor/2021.2.17f1/Editor/Data/UnityReferenceAssemblies/unity-4.8-api/System.IO.Compression.FileSystem.dll"
-r:"C:/Program Files/Unity/Hub/Editor/2021.2.17f1/Editor/Data/UnityReferenceAssemblies/unity-4.8-api/System.Json.dll"
-r:"C:/Program Files/Unity/Hub/Editor/2021.2.17f1/Editor/Data/UnityReferenceAssemblies/unity-4.8-api/System.Json.Microsoft.dll"
-r:"C:/Program Files/Unity/Hub/Editor/2021.2.17f1/Editor/Data/UnityReferenceAssemblies/unity-4.8-api/System.Management.dll"
-r:"C:/Program Files/Unity/Hub/Editor/2021.2.17f1/Editor/Data/UnityReferenceAssemblies/unity-4.8-api/System.Messaging.dll"
-r:"C:/Program Files/Unity/Hub/Editor/2021.2.17f1/Editor/Data/UnityReferenceAssemblies/unity-4.8-api/System.Net.dll"
-r:"C:/Program Files/Unity/Hub/Editor/2021.2.17f1/Editor/Data/UnityReferenceAssemblies/unity-4.8-api/System.Net.Http.dll"
-r:"C:/Program Files/Unity/Hub/Editor/2021.2.17f1/Editor/Data/UnityReferenceAssemblies/unity-4.8-api/System.Net.Http.Formatting.dll"
-r:"C:/Program Files/Unity/Hub/Editor/2021.2.17f1/Editor/Data/UnityReferenceAssemblies/unity-4.8-api/System.Net.Http.WebRequest.dll"
-r:"C:/Program Files/Unity/Hub/Editor/2021.2.17f1/Editor/Data/UnityReferenceAssemblies/unity-4.8-api/System.Numerics.dll"
-r:"C:/Program Files/Unity/Hub/Editor/2021.2.17f1/Editor/Data/UnityReferenceAssemblies/unity-4.8-api/System.Numerics.Vectors.dll"
-r:"C:/Program Files/Unity/Hub/Editor/2021.2.17f1/Editor/Data/UnityReferenceAssemblies/unity-4.8-api/System.Reactive.Core.dll"
-r:"C:/Program Files/Unity/Hub/Editor/2021.2.17f1/Editor/Data/UnityReferenceAssemblies/unity-4.8-api/System.Reactive.Debugger.dll"
-r:"C:/Program Files/Unity/Hub/Editor/2021.2.17f1/Editor/Data/UnityReferenceAssemblies/unity-4.8-api/System.Reactive.Experimental.dll"
-r:"C:/Program Files/Unity/Hub/Editor/2021.2.17f1/Editor/Data/UnityReferenceAssemblies/unity-4.8-api/System.Reactive.Interfaces.dll"
-r:"C:/Program Files/Unity/Hub/Editor/2021.2.17f1/Editor/Data/UnityReferenceAssemblies/unity-4.8-api/System.Reactive.Linq.dll"
-r:"C:/Program Files/Unity/Hub/Editor/2021.2.17f1/Editor/Data/UnityReferenceAssemblies/unity-4.8-api/System.Reactive.Observable.Aliases.dll"
-r:"C:/Program Files/Unity/Hub/Editor/2021.2.17f1/Editor/Data/UnityReferenceAssemblies/unity-4.8-api/System.Reactive.PlatformServices.dll"
-r:"C:/Program Files/Unity/Hub/Editor/2021.2.17f1/Editor/Data/UnityReferenceAssemblies/unity-4.8-api/System.Reactive.Providers.dll"
-r:"C:/Program Files/Unity/Hub/Editor/2021.2.17f1/Editor/Data/UnityReferenceAssemblies/unity-4.8-api/System.Reactive.Runtime.Remoting.dll"
-r:"C:/Program Files/Unity/Hub/Editor/2021.2.17f1/Editor/Data/UnityReferenceAssemblies/unity-4.8-api/System.Reactive.Windows.Forms.dll"
-r:"C:/Program Files/Unity/Hub/Editor/2021.2.17f1/Editor/Data/UnityReferenceAssemblies/unity-4.8-api/System.Reactive.Windows.Threading.dll"
-r:"C:/Program Files/Unity/Hub/Editor/2021.2.17f1/Editor/Data/UnityReferenceAssemblies/unity-4.8-api/System.Reflection.Context.dll"
-r:"C:/Program Files/Unity/Hub/Editor/2021.2.17f1/Editor/Data/UnityReferenceAssemblies/unity-4.8-api/System.Runtime.Caching.dll"
-r:"C:/Program Files/Unity/Hub/Editor/2021.2.17f1/Editor/Data/UnityReferenceAssemblies/unity-4.8-api/System.Runtime.DurableInstancing.dll"
-r:"C:/Program Files/Unity/Hub/Editor/2021.2.17f1/Editor/Data/UnityReferenceAssemblies/unity-4.8-api/System.Runtime.Remoting.dll"
-r:"C:/Program Files/Unity/Hub/Editor/2021.2.17f1/Editor/Data/UnityReferenceAssemblies/unity-4.8-api/System.Runtime.Serialization.dll"
-r:"C:/Program Files/Unity/Hub/Editor/2021.2.17f1/Editor/Data/UnityReferenceAssemblies/unity-4.8-api/System.Runtime.Serialization.Formatters.Soap.dll"
-r:"C:/Program Files/Unity/Hub/Editor/2021.2.17f1/Editor/Data/UnityReferenceAssemblies/unity-4.8-api/System.Security.dll"
-r:"C:/Program Files/Unity/Hub/Editor/2021.2.17f1/Editor/Data/UnityReferenceAssemblies/unity-4.8-api/System.ServiceModel.Activation.dll"
-r:"C:/Program Files/Unity/Hub/Editor/2021.2.17f1/Editor/Data/UnityReferenceAssemblies/unity-4.8-api/System.ServiceModel.Discovery.dll"
-r:"C:/Program Files/Unity/Hub/Editor/2021.2.17f1/Editor/Data/UnityReferenceAssemblies/unity-4.8-api/System.ServiceModel.dll"
-r:"C:/Program Files/Unity/Hub/Editor/2021.2.17f1/Editor/Data/UnityReferenceAssemblies/unity-4.8-api/System.ServiceModel.Routing.dll"
-r:"C:/Program Files/Unity/Hub/Editor/2021.2.17f1/Editor/Data/UnityReferenceAssemblies/unity-4.8-api/System.ServiceModel.Web.dll"
-r:"C:/Program Files/Unity/Hub/Editor/2021.2.17f1/Editor/Data/UnityReferenceAssemblies/unity-4.8-api/System.ServiceProcess.dll"
-r:"C:/Program Files/Unity/Hub/Editor/2021.2.17f1/Editor/Data/UnityReferenceAssemblies/unity-4.8-api/System.Threading.Tasks.Dataflow.dll"
-r:"C:/Program Files/Unity/Hub/Editor/2021.2.17f1/Editor/Data/UnityReferenceAssemblies/unity-4.8-api/System.Transactions.dll"
-r:"C:/Program Files/Unity/Hub/Editor/2021.2.17f1/Editor/Data/UnityReferenceAssemblies/unity-4.8-api/System.Web.Abstractions.dll"
-r:"C:/Program Files/Unity/Hub/Editor/2021.2.17f1/Editor/Data/UnityReferenceAssemblies/unity-4.8-api/System.Web.ApplicationServices.dll"
-r:"C:/Program Files/Unity/Hub/Editor/2021.2.17f1/Editor/Data/UnityReferenceAssemblies/unity-4.8-api/System.Web.dll"
-r:"C:/Program Files/Unity/Hub/Editor/2021.2.17f1/Editor/Data/UnityReferenceAssemblies/unity-4.8-api/System.Web.DynamicData.dll"
-r:"C:/Program Files/Unity/Hub/Editor/2021.2.17f1/Editor/Data/UnityReferenceAssemblies/unity-4.8-api/System.Web.Extensions.Design.dll"
-r:"C:/Program Files/Unity/Hub/Editor/2021.2.17f1/Editor/Data/UnityReferenceAssemblies/unity-4.8-api/System.Web.Extensions.dll"
-r:"C:/Program Files/Unity/Hub/Editor/2021.2.17f1/Editor/Data/UnityReferenceAssemblies/unity-4.8-api/System.Web.Http.dll"
-r:"C:/Program Files/Unity/Hub/Editor/2021.2.17f1/Editor/Data/UnityReferenceAssemblies/unity-4.8-api/System.Web.Http.SelfHost.dll"
-r:"C:/Program Files/Unity/Hub/Editor/2021.2.17f1/Editor/Data/UnityReferenceAssemblies/unity-4.8-api/System.Web.Http.WebHost.dll"
-r:"C:/Program Files/Unity/Hub/Editor/2021.2.17f1/Editor/Data/UnityReferenceAssemblies/unity-4.8-api/System.Web.Mobile.dll"
-r:"C:/Program Files/Unity/Hub/Editor/2021.2.17f1/Editor/Data/UnityReferenceAssemblies/unity-4.8-api/System.Web.Mvc.dll"
-r:"C:/Program Files/Unity/Hub/Editor/2021.2.17f1/Editor/Data/UnityReferenceAssemblies/unity-4.8-api/System.Web.Razor.dll"
-r:"C:/Program Files/Unity/Hub/Editor/2021.2.17f1/Editor/Data/UnityReferenceAssemblies/unity-4.8-api/System.Web.RegularExpressions.dll"
-r:"C:/Program Files/Unity/Hub/Editor/2021.2.17f1/Editor/Data/UnityReferenceAssemblies/unity-4.8-api/System.Web.Routing.dll"
-r:"C:/Program Files/Unity/Hub/Editor/2021.2.17f1/Editor/Data/UnityReferenceAssemblies/unity-4.8-api/System.Web.Services.dll"
-r:"C:/Program Files/Unity/Hub/Editor/2021.2.17f1/Editor/Data/UnityReferenceAssemblies/unity-4.8-api/System.Web.WebPages.Deployment.dll"
-r:"C:/Program Files/Unity/Hub/Editor/2021.2.17f1/Editor/Data/UnityReferenceAssemblies/unity-4.8-api/System.Web.WebPages.dll"
-r:"C:/Program Files/Unity/Hub/Editor/2021.2.17f1/Editor/Data/UnityReferenceAssemblies/unity-4.8-api/System.Web.WebPages.Razor.dll"
-r:"C:/Program Files/Unity/Hub/Editor/2021.2.17f1/Editor/Data/UnityReferenceAssemblies/unity-4.8-api/System.Windows.dll"
-r:"C:/Program Files/Unity/Hub/Editor/2021.2.17f1/Editor/Data/UnityReferenceAssemblies/unity-4.8-api/System.Windows.Forms.DataVisualization.dll"
-r:"C:/Program Files/Unity/Hub/Editor/2021.2.17f1/Editor/Data/UnityReferenceAssemblies/unity-4.8-api/System.Windows.Forms.dll"
-r:"C:/Program Files/Unity/Hub/Editor/2021.2.17f1/Editor/Data/UnityReferenceAssemblies/unity-4.8-api/System.Workflow.Activities.dll"
-r:"C:/Program Files/Unity/Hub/Editor/2021.2.17f1/Editor/Data/UnityReferenceAssemblies/unity-4.8-api/System.Workflow.ComponentModel.dll"
-r:"C:/Program Files/Unity/Hub/Editor/2021.2.17f1/Editor/Data/UnityReferenceAssemblies/unity-4.8-api/System.Workflow.Runtime.dll"
-r:"C:/Program Files/Unity/Hub/Editor/2021.2.17f1/Editor/Data/UnityReferenceAssemblies/unity-4.8-api/System.Xaml.dll"
-r:"C:/Program Files/Unity/Hub/Editor/2021.2.17f1/Editor/Data/UnityReferenceAssemblies/unity-4.8-api/System.Xml.dll"
-r:"C:/Program Files/Unity/Hub/Editor/2021.2.17f1/Editor/Data/UnityReferenceAssemblies/unity-4.8-api/System.Xml.Linq.dll"
-r:"C:/Program Files/Unity/Hub/Editor/2021.2.17f1/Editor/Data/UnityReferenceAssemblies/unity-4.8-api/System.Xml.Serialization.dll"
-r:"D:/GAMES/unity/projects/RTS/RTS/Library/PackageCache/com.unity.ext.nunit@1.0.6/net35/unity-custom/nunit.framework.dll"
-r:"Library/Bee/artifacts/500b0aE.dag/UnityEditor.TestRunner.ref.dll"
-r:"Library/Bee/artifacts/500b0aE.dag/UnityEditor.UI.ref.dll"
-r:"Library/Bee/artifacts/500b0aE.dag/UnityEngine.TestRunner.ref.dll"
-r:"Library/Bee/artifacts/500b0aE.dag/UnityEngine.UI.ref.dll"
-r:"Library/Bee/artifacts/500b0aE.dag/Zenject-TestFramework.ref.dll"
-r:"Library/Bee/artifacts/500b0aE.dag/Zenject.ref.dll"
"Assets/Plugins/Zenject/OptionalExtras/IntegrationTests/Bindings/TestDiContainerMethods/Foo.cs"
"Assets/Plugins/Zenject/OptionalExtras/IntegrationTests/Bindings/TestDiContainerMethods/Foo2.cs"
"Assets/Plugins/Zenject/OptionalExtras/IntegrationTests/Bindings/TestDiContainerMethods/Gorp.cs"
"Assets/Plugins/Zenject/OptionalExtras/IntegrationTests/Bindings/TestDiContainerMethods/Gorp2.cs"
"Assets/Plugins/Zenject/OptionalExtras/IntegrationTests/Bindings/TestFromComponentInHierarchyGameObjectContext/Foo.cs"
"Assets/Plugins/Zenject/OptionalExtras/IntegrationTests/Bindings/TestFromComponentInHierarchyGameObjectContext/FooInstaller.cs"
"Assets/Plugins/Zenject/OptionalExtras/IntegrationTests/Bindings/TestFromComponentInHierarchyGameObjectContext/Gorp.cs"
"Assets/Plugins/Zenject/OptionalExtras/IntegrationTests/Bindings/TestFromGameObjectInstaller/Bar.cs"
"Assets/Plugins/Zenject/OptionalExtras/IntegrationTests/Bindings/TestFromGameObjectInstaller/Foo.cs"
"Assets/Plugins/Zenject/OptionalExtras/IntegrationTests/Bindings/TestFromNewScriptableObjectResource/Bob.cs"
"Assets/Plugins/Zenject/OptionalExtras/IntegrationTests/Bindings/TestFromNewScriptableObjectResource/Foo.cs"
"Assets/Plugins/Zenject/OptionalExtras/IntegrationTests/Bindings/TestFromPrefab/Bar.cs"
"Assets/Plugins/Zenject/OptionalExtras/IntegrationTests/Bindings/TestFromPrefab/Bob.cs"
"Assets/Plugins/Zenject/OptionalExtras/IntegrationTests/Bindings/TestFromPrefab/Foo.cs"
"Assets/Plugins/Zenject/OptionalExtras/IntegrationTests/Bindings/TestFromPrefab/Gorp.cs"
"Assets/Plugins/Zenject/OptionalExtras/IntegrationTests/Bindings/TestFromPrefab/Jim.cs"
"Assets/Plugins/Zenject/OptionalExtras/IntegrationTests/Bindings/TestFromPrefab/Norf.cs"
"Assets/Plugins/Zenject/OptionalExtras/IntegrationTests/Bindings/TestFromPrefab/Norf2.cs"
"Assets/Plugins/Zenject/OptionalExtras/IntegrationTests/Bindings/TestFromPrefab/Qux.cs"
"Assets/Plugins/Zenject/OptionalExtras/IntegrationTests/Bindings/TestFromPrefabInstaller/Bar.cs"
"Assets/Plugins/Zenject/OptionalExtras/IntegrationTests/Bindings/TestFromPrefabInstaller/Foo.cs"
"Assets/Plugins/Zenject/OptionalExtras/IntegrationTests/Bindings/TestFromPrefabResource/Bar.cs"
"Assets/Plugins/Zenject/OptionalExtras/IntegrationTests/Bindings/TestFromPrefabResource/Bob.cs"
"Assets/Plugins/Zenject/OptionalExtras/IntegrationTests/Bindings/TestFromPrefabResource/Foo.cs"
"Assets/Plugins/Zenject/OptionalExtras/IntegrationTests/Bindings/TestFromPrefabResource/Gorp.cs"
"Assets/Plugins/Zenject/OptionalExtras/IntegrationTests/Bindings/TestFromPrefabResource/Jim.cs"
"Assets/Plugins/Zenject/OptionalExtras/IntegrationTests/Bindings/TestFromPrefabResource/Norf.cs"
"Assets/Plugins/Zenject/OptionalExtras/IntegrationTests/Bindings/TestFromPrefabResource/Norf2.cs"
"Assets/Plugins/Zenject/OptionalExtras/IntegrationTests/Bindings/TestFromPrefabResource/Qux.cs"
"Assets/Plugins/Zenject/OptionalExtras/IntegrationTests/Bindings/TestFromSubContainerPrefab/Bar.cs"
"Assets/Plugins/Zenject/OptionalExtras/IntegrationTests/Bindings/TestFromSubContainerPrefab/CircBar.cs"
"Assets/Plugins/Zenject/OptionalExtras/IntegrationTests/Bindings/TestFromSubContainerPrefab/CircFoo.cs"
"Assets/Plugins/Zenject/OptionalExtras/IntegrationTests/Bindings/TestFromSubContainerPrefab/Foo.cs"
"Assets/Plugins/Zenject/OptionalExtras/IntegrationTests/Bindings/TestFromSubContainerPrefab/FooInstaller.cs"
"Assets/Plugins/Zenject/OptionalExtras/IntegrationTests/Bindings/TestFromSubContainerPrefab/Gorp.cs"
"Assets/Plugins/Zenject/OptionalExtras/IntegrationTests/Bindings/TestFromSubContainerPrefabResource/Bar.cs"
"Assets/Plugins/Zenject/OptionalExtras/IntegrationTests/Bindings/TestFromSubContainerPrefabResource/Foo.cs"
"Assets/Plugins/Zenject/OptionalExtras/IntegrationTests/Bindings/TestFromSubContainerPrefabResource/FooInstaller.cs"
"Assets/Plugins/Zenject/OptionalExtras/IntegrationTests/Bindings/TestFromSubContainerPrefabResource/Gorp.cs"
"Assets/Plugins/Zenject/OptionalExtras/IntegrationTests/Bindings/TestInstantiateCallback/Foo.cs"
"Assets/Plugins/Zenject/OptionalExtras/IntegrationTests/Factories/PrefabFactory/Foo.cs"
"Assets/Plugins/Zenject/OptionalExtras/IntegrationTests/Factories/PrefabFactory/Foo2.cs"
"Assets/Plugins/Zenject/OptionalExtras/IntegrationTests/Factories/TestBindFactory/Bar.cs"
"Assets/Plugins/Zenject/OptionalExtras/IntegrationTests/Factories/TestBindFactory/Foo.cs"
"Assets/Plugins/Zenject/OptionalExtras/IntegrationTests/Factories/TestBindFactoryFive/Foo.cs"
"Assets/Plugins/Zenject/OptionalExtras/IntegrationTests/Factories/TestBindFactoryFive/FooInstaller.cs"
"Assets/Plugins/Zenject/OptionalExtras/IntegrationTests/Factories/TestBindFactoryOne/Bar.cs"
"Assets/Plugins/Zenject/OptionalExtras/IntegrationTests/Factories/TestBindFactoryOne/Foo.cs"
"Assets/Plugins/Zenject/OptionalExtras/IntegrationTests/Factories/TestBindFactoryOne/FooInstaller.cs"
"Assets/Plugins/Zenject/OptionalExtras/IntegrationTests/Installers/TestInstallers/BarInstaller.cs"
"Assets/Plugins/Zenject/OptionalExtras/IntegrationTests/Installers/TestInstallers/FooInstaller.cs"
"Assets/Plugins/Zenject/OptionalExtras/IntegrationTests/Installers/TestInstallers/QuxInstaller.cs"
"Assets/Plugins/Zenject/OptionalExtras/IntegrationTests/Installers/TestMonoInstallers/BarInstaller.cs"
"Assets/Plugins/Zenject/OptionalExtras/IntegrationTests/Installers/TestMonoInstallers/FooInstaller.cs"
"Assets/Plugins/Zenject/OptionalExtras/IntegrationTests/Installers/TestMonoInstallers/QuxInstaller.cs"
"Assets/Plugins/Zenject/OptionalExtras/IntegrationTests/Installers/TestScriptableObjectInstallers/BarInstaller.cs"
"Assets/Plugins/Zenject/OptionalExtras/IntegrationTests/Installers/TestScriptableObjectInstallers/FooInstaller.cs"
"Assets/Plugins/Zenject/OptionalExtras/IntegrationTests/Installers/TestScriptableObjectInstallers/QuxInstaller.cs"
"Assets/Plugins/Zenject/OptionalExtras/IntegrationTests/Misc/TestAnimationStateBehaviourInject/StateBehaviour1.cs"
"Assets/Plugins/Zenject/OptionalExtras/IntegrationTests/Misc/TestZenAutoInjecter/Bar.cs"
"Assets/Plugins/Zenject/OptionalExtras/IntegrationTests/Misc/TestZenAutoInjecter/Gorp.cs"
"Assets/Plugins/Zenject/OptionalExtras/IntegrationTests/Misc/TestZenAutoInjecter/Qux.cs"
"Assets/Plugins/Zenject/OptionalExtras/IntegrationTests/SceneContractTests/AutoLoader/Scene1Installer.cs"
"Assets/Plugins/Zenject/OptionalExtras/IntegrationTests/SceneContractTests/AutoLoader/Scene2Installer.cs"
"Assets/Plugins/Zenject/OptionalExtras/IntegrationTests/SceneContractTests/AutoLoader/Scene3Installer.cs"
"Assets/Plugins/Zenject/OptionalExtras/IntegrationTests/SceneContractTests/Decorators/Scene1Installer.cs"
"Assets/Plugins/Zenject/OptionalExtras/IntegrationTests/SceneContractTests/Decorators/Scene2Installer.cs"
"Assets/Plugins/Zenject/OptionalExtras/IntegrationTests/SceneTests/TestDestructionOrder/FooDisposable1.cs"
"Assets/Plugins/Zenject/OptionalExtras/IntegrationTests/SceneTests/TestDestructionOrder/FooDisposable2.cs"
"Assets/Plugins/Zenject/OptionalExtras/IntegrationTests/SceneTests/TestDestructionOrder/FooDisposable3.cs"
"Assets/Plugins/Zenject/OptionalExtras/IntegrationTests/SceneTests/TestDestructionOrder/FooMonoBehaviourUnderSceneContext1.cs"
"Assets/Plugins/Zenject/OptionalExtras/IntegrationTests/SceneTests/TestDestructionOrder/FooMonoBehaviourUnderSceneContext2.cs"
"Assets/Plugins/Zenject/OptionalExtras/IntegrationTests/SceneTests/TestDestructionOrder/FooMonoBehaviourUnderSceneContext3.cs"
"Assets/Plugins/Zenject/OptionalExtras/IntegrationTests/SceneTests/TestDestructionOrder/ProjectInstaller.cs"
"Assets/Plugins/Zenject/OptionalExtras/IntegrationTests/SceneTests/TestDestructionOrder/Scene1Installer.cs"
"Assets/Plugins/Zenject/OptionalExtras/IntegrationTests/SceneTests/TestDestructionOrder/Scene2Installer.cs"
"Assets/Plugins/Zenject/OptionalExtras/IntegrationTests/SceneTests/TestSceneContextEvents/SceneContextEventsTester.cs"
-langversion:9.0

/deterministic
/optimize+
/debug:portable
/nologo
/RuntimeMetadataVersion:v4.0.30319

/nowarn:0169
/nowarn:0649
/nowarn:1701
/nowarn:1702
/utf8output
/preferreduilang:en-US
